Place,Name,Sex,BirthDate,Age,Equipment,Division,BodyweightKg,WeightClassKg,Squat1Kg,Squat2Kg,Squat3Kg,Best3SquatKg,Bench1Kg,Bench2Kg,Bench3Kg,Best3BenchKg,Deadlift1Kg,Deadlift2Kg,Deadlift3Kg,Best3DeadliftKg,TotalKg,Event
1,Tina Lamarsh,F,1972-02-24,50,Raw,F-M3R-A,102.5,110,130,137.5,145,145,-65,67.5,72.5,72.5,125,137.5,145,145,362.5,SBD
1,Bianca Liberatore,F,1991-11-01,31,Raw,F-OR,66,67.5,142.5,152.5,-160,152.5,97.5,102.5,-107.5,102.5,165,175,-185,175,430,SBD
1,Kathleen Rowsell,F,1989-06-19,33,Raw,F-OR,71,75,105,112.5,117.5,117.5,60,-65,-65,60,105,110,115,115,292.5,SBD
1,Kaleigh Giesbrecht,F,1991-11-30,30,Raw,F-OR-A,65,67.5,82.5,90,-95,90,60,-65,-65,60,125,137.5,-142.5,137.5,287.5,SBD
1,Emma Massey,F,1998-01-31,24,Raw,F-OR-A,74,75,137.5,150,-160,150,60,67.5,72.5,72.5,150,170,-175,170,392.5,SBD
2,Brittany Corby,F,1985-09-18,37,Raw,F-OR-A,72.5,75,112.5,120,-127.5,120,77.5,-82.5,-82.5,77.5,135,145,-155,145,342.5,SBD
1,April Baldassarre,F,1987-01-09,35,Raw,F-OR-A,88,90,147.5,152.5,-157.5,152.5,75,80,82.5,82.5,160,165,-170,165,400,SBD
1,Holley Easy,F,2006-01-10,16,Raw,F-T2R-A,60,60,82.5,90,-95,90,37.5,40,-42.5,40,97.5,-105,105,105,235,SBD
1,Eslin Fougere,F,2000-07-12,22,Wraps,F-JCR-A,82.5,82.5,87.5,90,95,95,52.5,57.5,60,60,120,125,130,130,285,SBD
1,Kim Hess,F,1979-10-29,43,Wraps,F-M1CR-A,107,110,125,135,145,145,75,80,82.5,82.5,165,175,-182.5,175,402.5,SBD
1,Marissa Wutke,F,1997-09-15,25,Wraps,F-OCR,42,44,105,115,-122.5,115,52.5,55,-57.5,55,115,120,130,130,300,SBD
1,Hannah Fraser,F,1991-07-28,31,Wraps,F-OCR,66.5,67.5,122.5,135,-142.5,135,62.5,-72.5,-72.5,62.5,127.5,135,-142.5,135,332.5,SBD
2,Emily Terry,F,1998-10-23,24,Wraps,F-OCR,65,67.5,92.5,95,-100,95,-42.5,42.5,47.5,47.5,117.5,127.5,137.5,137.5,280,SBD
1,Michelle Morette,F,1989-06-29,33,Wraps,F-OCR-A,84.5,90,112.5,122.5,-132.5,122.5,70,75,82.5,82.5,130,142.5,150,150,355,SBD
1,Lindsay Butler,F,1987-11-08,35,Wraps,F-OCR-A,120,110+,122.5,125,127.5,127.5,67.5,-70,70,70,112.5,115,117.5,117.5,315,SBD
1,Kathryn Jeworski,F,2004-03-23,18,Wraps,F-T3CR,59,60,105,115,122.5,122.5,52.5,-55,55,55,115,120,127.5,127.5,305,SBD
1,Alexis Jolie,F,1991-04-20,31,Raw,F-OR-A,88.5,90,,,,,47.5,52.5,-57.5,52.5,130,-140,-140,130,182.5,BD
1,Robyn Sampson,F,1996-06-03,26,Raw,F-OR-A,119,110+,,,,,52.5,57.5,62.5,62.5,140,147.5,155,155,217.5,BD
1,Tyler Drazdoff,M,1991-09-14,31,Raw,M-OR-A,70,75,125,135,142.5,142.5,100,110,112.5,112.5,167.5,180,182.5,182.5,437.5,SBD
2,Jeremy Matte,M,1996-06-30,26,Raw,M-OR-A,74.5,75,-135,142.5,-155,142.5,90,-102.5,-102.5,90,162.5,167.5,185,185,417.5,SBD
1,Connor Pryschlak,M,2007-03-06,15,Raw,M-T1R-A,82.5,82.5,130,140,147.5,147.5,117.5,127.5,135,135,160,172.5,182.5,182.5,465,SBD
1,Prestin Gessner,M,2006-04-04,16,Raw,M-T2R-A,64.5,67.5,125,-137.5,,125,95,102.5,107.5,107.5,235,-245,-245,235,467.5,SBD
1,Waylon Fenton,M,2005-11-25,16,Raw,M-T2R-A,81,82.5,162.5,175,182.5,182.5,105,115,122.5,122.5,170,185,-205,185,490,SBD
1,Evan Baker,M,2006-06-30,16,Raw,M-T2R-A,84.5,90,142.5,155,172.5,172.5,92.5,102.5,107.5,107.5,240,260,272.5,272.5,552.5,SBD
1,Kyle Eggert,M,2004-06-22,18,Raw,M-T3R,94,100,170,177.5,190,190,120,125,-127.5,125,205,215,-225,215,530,SBD
1,Jason Ouellet,M,1977-05-01,45,Wraps,M-M2CR,110,110,270,287.5,295,295,172.5,-185,185,185,267.5,285,297.5,297.5,777.5,SBD
1,Leighton Fehr,M,1997-05-26,25,Wraps,M-OCR,81,82.5,182.5,-195,195,195,122.5,130,-135,130,237.5,247.5,257.5,257.5,582.5,SBD
1,Colton Rolufs,M,1993-10-03,29,Wraps,M-OCR,90,90,227.5,237.5,245,245,165,172.5,177.5,177.5,272.5,280,287.5,287.5,710,SBD
1,Doug MacLeod,M,1989-02-20,33,Wraps,M-OCR,106.5,110,275,290,305,305,170,177.5,182.5,182.5,275,290,302.5,302.5,790,SBD
2,Brent Gardiner,M,1984-12-12,37,Wraps,M-OCR,105,110,-200,207.5,225,225,142.5,155,162.5,162.5,220,250,-255,250,637.5,SBD
3,Gerald Roy,M,1984-03-25,38,Wraps,M-OCR,104,110,-180,180,190,190,125,-132.5,-132.5,125,210,220,225,225,540,SBD
1,Kyle Lindstrom,M,1997-07-08,25,Wraps,M-OCR,150,140+,250,265,275,275,170,182.5,-187.5,182.5,265,287.5,-300,287.5,745,SBD
1,Chad Gifford,M,1996-11-13,26,Wraps,M-OCR-A,90,90,175,-177.5,177.5,177.5,125,135,-140,135,235,255,-272.5,255,567.5,SBD
1,Jordan Andrew,M,1990-03-11,32,Wraps,M-OCR-A,110,110,230,-250,250,250,-175,175,-182.5,175,-220,235,250,250,675,SBD
1,Errol Luggi,M,1990-09-15,32,Wraps,M-OCR-A,125,125,220,232.5,-240,232.5,147.5,155,160,160,280,290,-300,290,682.5,SBD
2,Aaron Sampson,M,1995-09-08,27,Wraps,M-OCR-A,120,125,210,222.5,-227.5,222.5,132.5,137.5,142.5,142.5,242.5,252.5,262.5,262.5,627.5,SBD
1,Asa Moran,M,2006-06-17,16,Raw,M-T2CR-A,125,125,-137.5,140,145,145,80,87.5,-95,87.5,177.5,187.5,-192.5,187.5,420,SBD
1,Nathan Gauvin,M,2003-03-12,19,Wraps,M-T3CR-A,67.5,67.5,142.5,-152.5,152.5,152.5,72.5,82.5,-90,82.5,160,172.5,-182.5,172.5,407.5,SBD
1,William Paish,M,2003-09-07,19,Wraps,M-T3CR-A,95.5,100,235,-257.5,-257.5,235,140,152.5,-157.5,152.5,257.5,270,-280,270,657.5,SBD
1,Jonathan Archibald,M,2004-04-14,18,Wraps,M-T3CR-A,111,125,182.5,202.5,207.5,207.5,100,112.5,115,115,192.5,220,230,230,552.5,SBD
DQ,Tanner Edwards,M,1993-10-03,29,Multi-ply,M-OE,93.5,100,365,-375,-375,365,-200,-200,-200,,,,,,,SBD
DQ,Zachari Tetreault,M,1992-02-06,30,Multi-ply,M-OE,112,125,420,445,-455,445,-290,-290,-290,,280,-310,-310,280,,SBD
1,Bazil Godden,M,2009-06-30,13,Multi-ply,M-T1E,64.5,67.5,-80,87.5,90,90,47.5,52.5,-60,52.5,97.5,105,112.5,112.5,255,SBD
1,Brandon McLean,M,2000-03-29,22,Raw,M-JR-A,81.5,82.5,,,,,130,142.5,-152.5,142.5,205,230,250,250,392.5,BD
DQ,Blair Fisher,M,1960-09-16,62,Multi-ply,M-M5E,144,140+,,,,,-190,-190,-190,,232.5,250,-255,250,,BD
1,Blair Fisher,M,1960-09-16,62,Multi-ply,M-M5E,144,140+,,,,,,,,,232.5,250,-255,250,250,D
DQ,Tanner Edwards,M,1993-10-03,29,Multi-ply,M-OE,93.5,100,,,,,,,,,,,,,,D
1,Zachari Tetreault,M,1992-02-06,30,Multi-ply,M-OE,112,125,,,,,,,,,280,-310,-310,280,280,D
